
Ingenieria en Estadistica
19072	10	40	10	30	10	10	500	475	671.80	506.80	30	5
Lic. en Ciencias mencion: Biologia o Quimica
19075	10	40	20	20	0	10	500	475	735.50	538.10	25	2
Lic. en Fisica mencion: Astronomia, Ciencias Atmosfericas o Computacion Cientifica
19078	10	20	15	45	0	10	500	500	659.65	510.00	45	5
Licenciatura en Matematicas
19070	10	40	10	30	10	10	500	475	632.20	506.10	15	2